{
    "currencies": [
        { "code": "USD", "country": "US", "label": "United States Dollar", "symbol": "$" },
        { "code": "CAD", "country": "CA", "label": "Canadian Dollar", "symbol": "$" },
        { "code": "AUD", "country": "AU", "label": "Australian Dollar", "symbol": "$" },
        { "code": "CHF", "country": "CH", "label": "Swiss Franc", "symbol": "Fr" },
        { "code": "EUR", "country": "EUR", "label": "Euro", "symbol": "€" },
        { "code": "GBP", "country": "GB", "label": "British Pound", "symbol": "£" },
        { "code": "MXN", "country": "MX", "label": "Mexican Peso", "symbol": "$" },
        { "code": "INR", "country": "IN", "label": "Indian Rupee", "symbol": "₹" },
        { "code": "NZD", "country": "NZ", "label": "New Zealand Dollar", "symbol": "$" },
        { "code": "SAR", "country": "SA", "label": "Saudi Riyal", "symbol": "$" },
        { "code": "SGD", "country": "SG", "label": "Singapore Dollar", "symbol": "$" }
    ]
}