{
  "extends": "../../../tslint.json",
  "rules": {
    "directive-selector": [
      true,
      "attribute",
      "bridgeElements",
      "camelCase"
    ],
    "component-selector": [
      true,
      "element",
      "bridge-elements",
      "kebab-case"
    ]
  }
}
